Unit4_RTutorial Week
…
Now the dataset has a column to identify each tweet and a column that shows the text that users tweeted. But each row has the entire tweet in the text variable, which makes it hard to analyze. If we kept our dataset like this, we’d need to use functions on each row to do something like count the number of times the word “good” appears. We can count words more efficiently if each row represented a single word. Splitting sentences in a row into single words in a row is called “tokenizing.” In their book Text Mining With R, Silge & Robinson (2017)describe tokens this way:

A token is a meaningful unit of text, such as a word, that we are interested in using for analysis, and tokenization is the process of splitting text into tokens. This one-token-per-row structure is in contrast to the ways text is often stored in current analyses, perhaps as strings or in a document-term matrix.

Let’s use unnest_tokens() from the {tidytext} package to take our dataset of tweets and transform it into a dataset of words.

tokens <- 
  tweets %>%
  unnest_tokens(output = word, input = text)

tokens 

# A tibble: 131,232 × 2
   status_id           word       
   <chr>               <chr>      
 1 1163154266065735680 first      
 2 1163154266065735680 tidytuesday
 3 1163154266065735680 submission 
 4 1163154266065735680 roman      
 5 1163154266065735680 emperors   
 6 1163154266065735680 and        
 7 1163154266065735680 their      
 8 1163154266065735680 rise       
 9 1163154266065735680 to         
10 1163154266065735680 power      
# ℹ 131,222 more rows
…
Why does this work? Let’s look closer. inner_join() matches the observations in one dataset to another by a specified common variable. Any rows that don’t have a match get dropped from the resulting dataset. anti_join() does the same thing as inner_join() except it drops matching rows and keeps the rows that don’t match. This is convenient for our analysis because we want to remove rows from tokens that contain words in the stop_words dataset. When we call anti_join(), we’re left with rows that don’tmatch words in the stop_words dataset. These remaining words are the ones we’ll be analyzing.

One final note before we start counting words: Remember when we first tokenized our dataset and we passed unnest_tokens() the argument output = word? We conveniently chose word as our column name because it matches the column name word in the stop_words dataset. This makes our call to anti_join() simpler because anti_join() knows to look for the column named word in each dataset.

Analysis: Counting Words

Now it’s time to start exploring our newly cleaned dataset of tweets. Computing the frequency of each word and seeing which words showed up the most often is a good start. We can pipe tokens to the countfunction to do this:

tokens |>
    count(word, sort = TRUE) 

# A tibble: 15,334 × 2
   word            n
   <chr>       <int>
 1 t.co         5432
 2 https        5406
 3 tidytuesday  4316
 4 rstats       1748
 5 data         1105
 6 code          988
 7 week          868
 8 r4ds          675
 9 dataviz       607
10 time          494
# ℹ 15,324 more rows

We pass count() the argument sort = TRUE to sort the n variable from the highest value to the lowest value. This makes it easy to see the most frequently occurring words at the top. Not surprisingly, “tidytuesday” was the third most frequent word in this dataset.

We may want to explore further by showing the frequency of words as a percent of the whole dataset. Calculating percentages like this is useful in a lot of education scenarios because it helps us make comparisons across different sized groups. For example, you may want to calculate what percentage of students in each classroom receive special education services.

In our tweets dataset, we’ll be calculating the count of words as a percentage of all tweets. We can do that by using mutate() to add a column called percent. percent will divide n by sum(n), which is the total number of words. Finally, will multiply the result by 100.

tokens |>
  count(word, sort = TRUE) %>%
  # n as a percent of total words
  mutate(percent = n / sum(n) * 100)

# A tibble: 15,334 × 3
   word            n percent
   <chr>       <int>   <dbl>
 1 t.co         5432   7.39 
 2 https        5406   7.36 
 3 tidytuesday  4316   5.87 
 4 rstats       1748   2.38 
 5 data         1105   1.50 
 6 code          988   1.34 
 7 week          868   1.18 
 8 r4ds          675   0.919
 9 dataviz       607   0.826
10 time          494   0.672
# ℹ 15,324 more rows
…
Earlier we used anti_join() to remove stop words in our dataset. We’re going to do something similar here to reduce our tokens dataset to only words that have a positive association. We’ll use a dataset called the NRC Word-Emotion Association Lexicon to help us identify words with a positive association. This dataset was published in a work called Crowdsourcing a Word-Emotion Association Lexicon (Mohammad & Turney, 2013)

We need to install a package called {textdata} to make sure we have the NRC Word-Emotion Association Lexicon dataset available to us. Note that you only need to have this package installed. You do not need to load it with the library(textdata) command.

If you don’t already have it, let’s install {textdata}:

install.packages("textdata")
library(textdata)

To explore this dataset more, we’ll use a {tidytext} function called get_sentiments() to view some words and their associated sentiment. If this is your first time using the NRC Word-Emotion Association Lexicon, you’ll be prompted to download the NRC lexicon. Respond “yes” to the prompt and the NRC lexicon will download. Note that you’ll only have to do this the first time you use the NRC lexicon.

get_sentiments("nrc")

# A tibble: 13,872 × 2
   word        sentiment
   <chr>       <chr>    
 1 abacus      trust    
 2 abandon     fear     
 3 abandon     negative 
 4 abandon     sadness  
 5 abandoned   anger    
 6 abandoned   fear     
 7 abandoned   negative 
 8 abandoned   sadness  
 9 abandonment anger    
10 abandonment fear     
# ℹ 13,862 more rows
…
# Only positive in the NRC dataset
nrc_pos <-
  get_sentiments("nrc") %>%
  filter(sentiment == "positive")

# Match to tokens
pos_tokens_count <-
  tokens %>%
  inner_join(nrc_pos, by = "word") %>%
  # Total appearance of positive words
  count(word, sort = TRUE) 

pos_tokens_count

# A tibble: 642 × 2
   word          n
   <chr>     <int>
 1 fun         173
 2 top         162
 3 learn       131
 4 found       128
 5 love        113
 6 community   110
 7 learning     97
 8 happy        95
 9 share        90
10 inspired     85
# ℹ 632 more rows
…
There are a few steps to this part of the analysis, so let’s review our strategy. We’ll need to use the status_id field in the tweets dataset to filter the tweets that have the word dataviz in them. Then we need to use the status_id field in this new bunch of dataviz tweets to identify the tweets that include at least one positive word.

How do we know which status_id values contain the word “dataviz” and which ones contain a positive word? Recall that our tokens dataset only has one word per row, which makes it easy to use functions like filter() and inner_join() to make two new datasets: one of status_id values that have “dataviz” in the word column and one of status_id values that have a positive word in the word column.

We’ll explore the combinations of “dataviz” and any positive words in our tweets dataset using these three ingredients: our tweets dataset, a vector of status_ids for tweets that have “dataviz” in them, and a vector of status_ids for tweets that have positive words in them. Now that we have our strategy, let’s write some code and see how it works.

First, we’ll make a vector of status_ids for tweets that have “dataviz” in them. This will be used later to identify tweets that contain “dataviz” in the text. We’ll use filter() on our tokens dataset to keep only the rows that have “dataviz” in the word column. Let’s name that new dataset dv_tokens.

dv_tokens <-
  tokens %>%
  filter(word == "dataviz")

dv_tokens

# A tibble: 607 × 2
   status_id           word   
   <chr>               <chr>  
 1 1116518351147360257 dataviz
 2 1098025772554612738 dataviz
 3 1161454327296339968 dataviz
 4 1110711892086001665 dataviz
 5 1151926405162291200 dataviz
 6 1095854400004853765 dataviz
 7 1157111441419395074 dataviz
 8 1154958378764046336 dataviz
 9 1105642831413239808 dataviz
10 1108196618464047105 dataviz
# ℹ 597 more rows
…
# Extract status_id
head(dv_tokens$status_id)

[1] "1116518351147360257" "1098025772554612738" "1161454327296339968"
[4] "1110711892086001665" "1151926405162291200" "1095854400004853765"

Now let’s do this again, but this time we’ll we’ll make a vector of status_ids for tweets that have positive words in them. This will be used later to identify tweets that contain a positive word in the text. We’ll use filter() on our tokens dataset to keep only the rows that have any of the positive words in the in the word column. If you’ve been running all the code up to this point in the walkthrough, you’ll notice that you already have a dataset of positive words called nrc_pos, which can be turned into a vector of positive words by typing nrc_pos$word. We can use the %in% operator in our call to filter() to find only words that are in this vector of positive words. Let’s name this new dataset pos_tokens.

pos_tokens <- 
  tokens %>%
  filter(word %in% nrc_pos$word)

pos_tokens

# A tibble: 4,885 × 2
   status_id           word      
   <chr>               <chr>     
 1 1163154266065735680 throne    
 2 1001412196247666688 honey     
 3 1001412196247666688 production
 4 1001412196247666688 increase  
 5 1001412196247666688 production
 6 1161638973808287746 found     
 7 991073965899644928  community 
 8 991073965899644928  community 
 9 991073965899644928  trend     
10 991073965899644928  population
# ℹ 4,875 more rows
…
Let’s put these into their own data frame, called mentions.

mentions <-
  tt_tweets %>%
  mutate(all_mentions = str_trim(all_mentions)) %>%
  select(sender = screen_name, all_mentions)

Putting the Edgelist Together

Recall that an edgelist is a data structure that has columns for the “sender” and “receiver” of interactions. Someone “sends” the mention to someone who is mentioned, who can be considered to “receive” it. To make the edgelist, we’ll need to clean it up a little by removing the “@” symbol. Let’s look at our data as it is now.

mentions

# A tibble: 2,447 × 2
   sender  all_mentions    
   <chr>   <chr>           
 1 cizzart @eldestapeweb   
 2 cizzart @INDECArgentina 
 3 cizzart @ENACOMArgentina
 4 cizzart @tribunalelecmns
 5 cizzart @CamaraElectoral
 6 cizzart @INDECArgentina 
 7 cizzart @tribunalelecmns
 8 cizzart @CamaraElectoral
 9 cizzart @AgroMnes       
10 cizzart @AgroindustriaAR
# ℹ 2,437 more rows
…
We’ll use the as_tbl_graph() function, which identifies the first column as the “sender” and the second as the “receiver.” Let’s look at the object it creates:

g <- 
  as_tbl_graph(edgelist)

g

# A tbl_graph: 267 nodes and 975 edges
#
# A directed multigraph with 7 components
#
# A tibble: 267 × 1
  name           
  <chr>          
1 dgwinfred      
2 datawookie     
3 jvaghela4      
4 FournierJohanie
5 JonTheGeek     
6 jakekaupp      
# ℹ 261 more rows
#
# A tibble: 975 × 2
   from    to
  <int> <int>
1     1    32
2     1    36
3     2   120
# ℹ 972 more rows
…
